alsa-utils 1.2.6-1
ap6256-firmware 2020.02-10
ark 22.04.1-1
base 2-2
bluedevil 1:5.24.5-1
breeze 5.24.5-1
breeze-gtk 5.24.5-1
btrfs-progs 5.17-1
dolphin 22.04.1-1
dolphin-plugins 22.04.1-1
drkonqi 5.24.5-1
f2fs-tools 1.15.0-1
feh 3.9.1-2
firefox 100.0.2-1
firefox-ublock-origin 1.42.2-1
firewalld 1.1.1-1
flameshot 11.0.0-5
generic-post-install 20220530-1
gwenview 22.04.1-1
inxi 3.3.11.1-1
irqbalance 1.8.0-2
kate 22.04.1-1
kcalc 22.04.1-1
kde-gtk-config 5.24.5-1
kinfocenter 5.24.5-1
konsole 22.04.1-1
kscreen 5.24.5-1
kscreenlocker 5.24.5-1
ksysguard 5.22.0-1
kwallet-pam 5.24.5-1
kwayland-integration 5.24.5-1
kwin 5.24.5-2
linux 5.18.0-4
linux-firmware 20220509.b19cbdc-1
man-db 2.10.2-1
man-pages 5.13-1
manjaro-arm-flasher 0.9-1
manjaro-arm-installer 1.4.10-1
manjaro-arm-wallpapers 20220109-1
manjaro-hotfixes 2018.08-6
manjaro-icons 20200213-1
manjaro-release 22.06-1
manjaro-settings-manager 0.5.7-1
manjaro-system 20230303-1
matray 1.1.2-1
mpv 1:0.34.1-4
nano 6.3-1
ncdu 1.16-2
networkmanager-openvpn 1.8.18-2
noto-fonts 20220502-2
ntfs-3g 2021.8.22-1
okular 22.04.1-1
openresolv 3.12.0-1
openssh 9.0p1-1
pacman 6.0.1-6
pamac-gtk 10.4.0-2
pamac-tray-icon-plasma 0.1.2-2
parted 3.5-1
pinebookpro-audio 1-2
pinebookpro-post-install 20220607-1
pipewire-alsa 1:0.3.51-1
pipewire-pulse 1:0.3.51-1
pipewire-zeroconf 1:0.3.51-1
plasma-desktop 5.24.5-2
plasma-firewall 5.24.5-1
plasma-nm 5.24.5-1
plasma-pa 5.24.5-1
plasma-vault 5.24.5-1
plasma-wayland-session 5.24.5-3
plasma-workspace 5.24.5-3
plasma5-themes-breath 21.2.0-2
plymouth 22.02.122-1
plymouth-theme-manjaro 1-1
power-profiles-daemon 0.11.1-1
powerdevil 5.24.5-1
sddm 0.19.0-8
sddm-breath-theme 21.2.0-2
sddm-kcm 5.24.5-1
sudo 1.9.10-1
systemd 251-1
systemsettings 5.24.5-1
ttf-bitstream-vera 1.10-14
wget 1.21.3-1
wireless-regdb 2022.04.08-1
wpa_supplicant 2:2.10-4
wqy-microhei 0.2.0_beta-11
xdg-user-dirs 0.17-3
xf86-input-synaptics 1.9.1-3
xorg-server 21.1.3-7
xorg-xinit 1.4.1-3
zswap-arm 1-1
